/* CEO */          
Site:               eztibia.com        
Contact:            admin [at] deswolf.com                
Location:           London
			
/* THANKS */				
Tobias Lindberg:    TibiaData.com
//todo

/* SITE */
Standards:          HTML5, CSS3    
Components:         React, SASS, Bulma
Software:           VS Code